{"data":[{"id":"851ydj","url":"https:\/\/wallhaven.cc\/w\/851ydj","short_url":"https:\/\/whvn.cc\/851ydj","views":91,"favorites":2,"source":"","purity":"sfw","category":"anime","dimension_x":2775,"dimension_y":3700,"resolution":"2775x3700","ratio":"0.75","file_size":17463840,"file_type":"image\/png","created_at":"2024-04-07 07:28:49","colors":["#424153","#000000","#999999","#ffffff","#66cccc"],"path":"https:\/\/w.wallhaven.cc\/full\/85\/wallhaven-851ydj.png","thumbs":{"large":"https:\/\/th.wallhaven.cc\/lg\/85\/851ydj.jpg","original":"https:\/\/th.wallhaven.cc\/orig\/85\/851ydj.jpg","small":"https:\/\/th.wallhaven.cc\/small\/85\/851ydj.jpg"}},{"id":"qz8yg5","url":"https:\/\/wallhaven.cc\/w\/qz8yg5","short_url":"https:\/\/whvn.cc\/qz8yg5","views":115,"favorites":4,"source":"","purity":"sfw","category":"anime","dimension_x":1971,"dimension_y":3000,"resolution":"1971x3000","ratio":"0.66","file_size":10307367,"file_type":"image\/png","created_at":"2024-04-07 07:28:49","colors":["#424153","#999999","#cccccc","#66cccc","#abbcda"],"path":"https:\/\/w.wallhaven.cc\/full\/qz\/wallhaven-qz8yg5.png","thumbs":{"large":"https:\/\/th.wallhaven.cc\/lg\/qz\/qz8yg5.jpg","original":"https:\/\/th.wallhaven.cc\/orig\/qz\/qz8yg5.jpg","small":"https:\/\/th.wallhaven.cc\/small\/qz\/qz8yg5.jpg"}},{"id":"o5erl5","url":"https:\/\/wallhaven.cc\/w\/o5erl5","short_url":"https:\/\/whvn.cc\/o5erl5","views":81,"favorites":4,"source":"","purity":"sfw","category":"anime","dimension_x":1444,"dimension_y":1700,"resolution":"1444x1700","ratio":"0.85","file_size":503291,"file_type":"image\/jpeg","created_at":"2024-04-07 07:28:49","colors":["#0066cc","#abbcda","#333399","#cccccc","#66cccc"],"path":"https:\/\/w.wallhaven.cc\/full\/o5\/wallhaven-o5erl5.jpg","thumbs":{"large":"https:\/\/th.wallhaven.cc\/lg\/o5\/o5erl5.jpg","original":"https:\/\/th.wallhaven.cc\/orig\/o5\/o5erl5.jpg","small":"https:\/\/th.wallhaven.cc\/small\/o5\/o5erl5.jpg"}},{"id":"x62mjd","url":"https:\/\/wallhaven.cc\/w\/x62mjd","short_url":"https:\/\/whvn.cc\/x62mjd","views":95,"favorites":5,"source":"","purity":"sfw","category":"anime","dimension_x":2150,"dimension_y":3035,"resolution":"2150x3035","ratio":"0.71","file_size":7048545,"file_type":"image\/png","created_at":"2024-04-07 07:28:49","colors":["#999999","#cccccc","#333399","#ffffff","#abbcda"],"path":"https:\/\/w.wallhaven.cc\/full\/x6\/wallhaven-x62mjd.png","thumbs":{"large":"https:\/\/th.wallhaven.cc\/lg\/x6\/x62mjd.jpg","original":"https:\/\/th.wallhaven.cc\/orig\/x6\/x62mjd.jpg","small":"https:\/\/th.wallhaven.cc\/small\/x6\/x62mjd.jpg"}},{"id":"p9xdjj","url":"https:\/\/wallhaven.cc\/w\/p9xdjj","short_url":"https:\/\/whvn.cc\/p9xdjj","views":71,"favorites":3,"source":"","purity":"sfw","category":"anime","dimension_x":1362,"dimension_y":2000,"resolution":"1362x2000","ratio":"0.68","file_size":2715982,"file_type":"image\/jpeg","created_at":"2024-04-07 07:28:49","colors":["#999999","#abbcda","#424153","#ffffff","#333399"],"path":"https:\/\/w.wallhaven.cc\/full\/p9\/wallhaven-p9xdjj.jpg","thumbs":{"large":"https:\/\/th.wallhaven.cc\/lg\/p9\/p9xdjj.jpg","original":"https:\/\/th.wallhaven.cc\/orig\/p9\/p9xdjj.jpg","small":"https:\/\/th.wallhaven.cc\/small\/p9\/p9xdjj.jpg"}},{"id":"m3mkw1","url":"https:\/\/wallhaven.cc\/w\/m3mkw1","short_url":"https:\/\/whvn.cc\/m3mkw1","views":100,"favorites":3,"source":"","purity":"sfw","category":"anime","dimension_x":2475,"dimension_y":3500,"resolution":"2475x3500","ratio":"0.71","file_size":2658051,"file_type":"image\/jpeg","created_at":"2024-04-07 07:28:49","colors":["#424153","#663399","#999999","#000000","#993399"],"path":"https:\/\/w.wallhaven.cc\/full\/m3\/wallhaven-m3mkw1.jpg","thumbs":{"large":"https:\/\/th.wallhaven.cc\/lg\/m3\/m3mkw1.jpg","original":"https:\/\/th.wallhaven.cc\/orig\/m3\/m3mkw1.jpg","small":"https:\/\/th.wallhaven.cc\/small\/m3\/m3mkw1.jpg"}},{"id":"7pq5w9","url":"https:\/\/wallhaven.cc\/w\/7pq5w9","short_url":"https:\/\/whvn.cc\/7pq5w9","views":118,"favorites":5,"source":"","purity":"sfw","category":"anime","dimension_x":3500,"dimension_y":2251,"resolution":"3500x2251","ratio":"1.55","file_size":2514283,"file_type":"image\/jpeg","created_at":"2024-04-07 07:28:49","colors":["#424153","#ea4c88","#999999","#000000","#ffffff"],"path":"https:\/\/w.wallhaven.cc\/full\/7p\/wallhaven-7pq5w9.jpg","thumbs":{"large":"https:\/\/th.wallhaven.cc\/lg\/7p\/7pq5w9.jpg","original":"https:\/\/th.wallhaven.cc\/orig\/7p\/7pq5w9.jpg","small":"https:\/\/th.wallhaven.cc\/small\/7p\/7pq5w9.jpg"}},{"id":"zyreov","url":"https:\/\/wallhaven.cc\/w\/zyreov","short_url":"https:\/\/whvn.cc\/zyreov","views":77,"favorites":2,"source":"","purity":"sfw","category":"anime","dimension_x":2894,"dimension_y":4535,"resolution":"2894x4535","ratio":"0.64","file_size":12032603,"file_type":"image\/png","created_at":"2024-04-07 07:28:49","colors":["#ffffff","#fdadc7","#cccccc","#e7d8b1","#ea4c88"],"path":"https:\/\/w.wallhaven.cc\/full\/zy\/wallhaven-zyreov.png","thumbs":{"large":"https:\/\/th.wallhaven.cc\/lg\/zy\/zyreov.jpg","original":"https:\/\/th.wallhaven.cc\/orig\/zy\/zyreov.jpg","small":"https:\/\/th.wallhaven.cc\/small\/zy\/zyreov.jpg"}},{"id":"6dzr2l","url":"https:\/\/wallhaven.cc\/w\/6dzr2l","short_url":"https:\/\/whvn.cc\/6dzr2l","views":92,"favorites":6,"source":"","purity":"sfw","category":"anime","dimension_x":2464,"dimension_y":3508,"resolution":"2464x3508","ratio":"0.7","file_size":827959,"file_type":"image\/jpeg","created_at":"2024-04-07 07:28:49","colors":["#ffffff","#abbcda","#cccccc","#424153","#999999"],"path":"https:\/\/w.wallhaven.cc\/full\/6d\/wallhaven-6dzr2l.jpg","thumbs":{"large":"https:\/\/th.wallhaven.cc\/lg\/6d\/6dzr2l.jpg","original":"https:\/\/th.wallhaven.cc\/orig\/6d\/6dzr2l.jpg","small":"https:\/\/th.wallhaven.cc\/small\/6d\/6dzr2l.jpg"}},{"id":"ex1mew","url":"https:\/\/wallhaven.cc\/w\/ex1mew","short_url":"https:\/\/whvn.cc\/ex1mew","views":74,"favorites":4,"source":"","purity":"sfw","category":"anime","dimension_x":1533,"dimension_y":2491,"resolution":"1533x2491","ratio":"0.62","file_size":6720457,"file_type":"image\/png","created_at":"2024-04-07 07:28:49","colors":["#ffffff","#424153","#cccccc","#333399","#abbcda"],"path":"https:\/\/w.wallhaven.cc\/full\/ex\/wallhaven-ex1mew.png","thumbs":{"large":"https:\/\/th.wallhaven.cc\/lg\/ex\/ex1mew.jpg","original":"https:\/\/th.wallhaven.cc\/orig\/ex\/ex1mew.jpg","small":"https:\/\/th.wallhaven.cc\/small\/ex\/ex1mew.jpg"}},{"id":"p9xdw9","url":"https:\/\/wallhaven.cc\/w\/p9xdw9","short_url":"https:\/\/whvn.cc\/p9xdw9","views":118,"favorites":6,"source":"","purity":"sfw","category":"anime","dimension_x":4096,"dimension_y":2304,"resolution":"4096x2304","ratio":"1.78","file_size":710472,"file_type":"image\/jpeg","created_at":"2024-04-07 07:19:57","colors":["#424153","#000000","#996633","#663300","#cc3333"],"path":"https:\/\/w.wallhaven.cc\/full\/p9\/wallhaven-p9xdw9.jpg","thumbs":{"large":"https:\/\/th.wallhaven.cc\/lg\/p9\/p9xdw9.jpg","original":"https:\/\/th.wallhaven.cc\/orig\/p9\/p9xdw9.jpg","small":"https:\/\/th.wallhaven.cc\/small\/p9\/p9xdw9.jpg"}},{"id":"o5er19","url":"https:\/\/wallhaven.cc\/w\/o5er19","short_url":"https:\/\/whvn.cc\/o5er19","views":131,"favorites":6,"source":"https:\/\/www.pixiv.net\/en\/artworks\/117610351","purity":"sfw","category":"anime","dimension_x":3507,"dimension_y":2480,"resolution":"3507x2480","ratio":"1.41","file_size":7846230,"file_type":"image\/png","created_at":"2024-04-07 06:56:59","colors":["#424153","#996633","#cc3333","#cc6633","#999999"],"path":"https:\/\/w.wallhaven.cc\/full\/o5\/wallhaven-o5er19.png","thumbs":{"large":"https:\/\/th.wallhaven.cc\/lg\/o5\/o5er19.jpg","original":"https:\/\/th.wallhaven.cc\/orig\/o5\/o5er19.jpg","small":"https:\/\/th.wallhaven.cc\/small\/o5\/o5er19.jpg"}},{"id":"5g89z9","url":"https:\/\/wallhaven.cc\/w\/5g89z9","short_url":"https:\/\/whvn.cc\/5g89z9","views":184,"favorites":10,"source":"","purity":"sfw","category":"anime","dimension_x":5313,"dimension_y":2694,"resolution":"5313x2694","ratio":"1.97","file_size":7330359,"file_type":"image\/jpeg","created_at":"2024-04-07 06:39:16","colors":["#0099cc","#66cccc","#424153","#ffffff","#999999"],"path":"https:\/\/w.wallhaven.cc\/full\/5g\/wallhaven-5g89z9.jpg","thumbs":{"large":"https:\/\/th.wallhaven.cc\/lg\/5g\/5g89z9.jpg","original":"https:\/\/th.wallhaven.cc\/orig\/5g\/5g89z9.jpg","small":"https:\/\/th.wallhaven.cc\/small\/5g\/5g89z9.jpg"}},{"id":"p9xdo9","url":"https:\/\/wallhaven.cc\/w\/p9xdo9","short_url":"https:\/\/whvn.cc\/p9xdo9","views":66,"favorites":0,"source":"","purity":"sfw","category":"general","dimension_x":1920,"dimension_y":1080,"resolution":"1920x1080","ratio":"1.78","file_size":2318598,"file_type":"image\/png","created_at":"2024-04-07 04:03:38","colors":["#000000","#424153","#ffffff","#cccccc","#999999"],"path":"https:\/\/w.wallhaven.cc\/full\/p9\/wallhaven-p9xdo9.png","thumbs":{"large":"https:\/\/th.wallhaven.cc\/lg\/p9\/p9xdo9.jpg","original":"https:\/\/th.wallhaven.cc\/orig\/p9\/p9xdo9.jpg","small":"https:\/\/th.wallhaven.cc\/small\/p9\/p9xdo9.jpg"}},{"id":"m3mkl9","url":"https:\/\/wallhaven.cc\/w\/m3mkl9","short_url":"https:\/\/whvn.cc\/m3mkl9","views":73,"favorites":0,"source":"","purity":"sfw","category":"general","dimension_x":1920,"dimension_y":1080,"resolution":"1920x1080","ratio":"1.78","file_size":2403040,"file_type":"image\/png","created_at":"2024-04-07 04:03:38","colors":["#424153","#abbcda","#66cccc","#999999","#000000"],"path":"https:\/\/w.wallhaven.cc\/full\/m3\/wallhaven-m3mkl9.png","thumbs":{"large":"https:\/\/th.wallhaven.cc\/lg\/m3\/m3mkl9.jpg","original":"https:\/\/th.wallhaven.cc\/orig\/m3\/m3mkl9.jpg","small":"https:\/\/th.wallhaven.cc\/small\/m3\/m3mkl9.jpg"}},{"id":"x62mez","url":"https:\/\/wallhaven.cc\/w\/x62mez","short_url":"https:\/\/whvn.cc\/x62mez","views":50,"favorites":0,"source":"","purity":"sfw","category":"general","dimension_x":1920,"dimension_y":1080,"resolution":"1920x1080","ratio":"1.78","file_size":2658703,"file_type":"image\/png","created_at":"2024-04-07 04:03:38","colors":["#000000","#999999","#cccccc","#424153","#663399"],"path":"https:\/\/w.wallhaven.cc\/full\/x6\/wallhaven-x62mez.png","thumbs":{"large":"https:\/\/th.wallhaven.cc\/lg\/x6\/x62mez.jpg","original":"https:\/\/th.wallhaven.cc\/orig\/x6\/x62mez.jpg","small":"https:\/\/th.wallhaven.cc\/small\/x6\/x62mez.jpg"}},{"id":"ex1m88","url":"https:\/\/wallhaven.cc\/w\/ex1m88","short_url":"https:\/\/whvn.cc\/ex1m88","views":73,"favorites":0,"source":"","purity":"sfw","category":"general","dimension_x":1920,"dimension_y":1080,"resolution":"1920x1080","ratio":"1.78","file_size":2530949,"file_type":"image\/png","created_at":"2024-04-07 04:03:38","colors":["#000000","#424153","#999999","#cccccc","#abbcda"],"path":"https:\/\/w.wallhaven.cc\/full\/ex\/wallhaven-ex1m88.png","thumbs":{"large":"https:\/\/th.wallhaven.cc\/lg\/ex\/ex1m88.jpg","original":"https:\/\/th.wallhaven.cc\/orig\/ex\/ex1m88.jpg","small":"https:\/\/th.wallhaven.cc\/small\/ex\/ex1m88.jpg"}},{"id":"zyreyo","url":"https:\/\/wallhaven.cc\/w\/zyreyo","short_url":"https:\/\/whvn.cc\/zyreyo","views":127,"favorites":10,"source":"","purity":"sfw","category":"anime","dimension_x":2200,"dimension_y":2200,"resolution":"2200x2200","ratio":"1","file_size":3786874,"file_type":"image\/png","created_at":"2024-04-07 02:07:07","colors":["#e7d8b1","#fdadc7","#999999","#ea4c88","#ffffff"],"path":"https:\/\/w.wallhaven.cc\/full\/zy\/wallhaven-zyreyo.png","thumbs":{"large":"https:\/\/th.wallhaven.cc\/lg\/zy\/zyreyo.jpg","original":"https:\/\/th.wallhaven.cc\/orig\/zy\/zyreyo.jpg","small":"https:\/\/th.wallhaven.cc\/small\/zy\/zyreyo.jpg"}},{"id":"ex1mx8","url":"https:\/\/wallhaven.cc\/w\/ex1mx8","short_url":"https:\/\/whvn.cc\/ex1mx8","views":209,"favorites":15,"source":"","purity":"sfw","category":"anime","dimension_x":2000,"dimension_y":1329,"resolution":"2000x1329","ratio":"1.5","file_size":5615258,"file_type":"image\/png","created_at":"2024-04-07 01:57:03","colors":["#424153","#999999","#cccccc","#ffffff","#e7d8b1"],"path":"https:\/\/w.wallhaven.cc\/full\/ex\/wallhaven-ex1mx8.png","thumbs":{"large":"https:\/\/th.wallhaven.cc\/lg\/ex\/ex1mx8.jpg","original":"https:\/\/th.wallhaven.cc\/orig\/ex\/ex1mx8.jpg","small":"https:\/\/th.wallhaven.cc\/small\/ex\/ex1mx8.jpg"}},{"id":"o5er59","url":"https:\/\/wallhaven.cc\/w\/o5er59","short_url":"https:\/\/whvn.cc\/o5er59","views":282,"favorites":11,"source":"","purity":"sfw","category":"anime","dimension_x":3840,"dimension_y":2160,"resolution":"3840x2160","ratio":"1.78","file_size":2005176,"file_type":"image\/jpeg","created_at":"2024-04-06 22:54:23","colors":["#424153","#999999","#abbcda","#ffffff","#663399"],"path":"https:\/\/w.wallhaven.cc\/full\/o5\/wallhaven-o5er59.jpg","thumbs":{"large":"https:\/\/th.wallhaven.cc\/lg\/o5\/o5er59.jpg","original":"https:\/\/th.wallhaven.cc\/orig\/o5\/o5er59.jpg","small":"https:\/\/th.wallhaven.cc\/small\/o5\/o5er59.jpg"}},{"id":"vqr693","url":"https:\/\/wallhaven.cc\/w\/vqr693","short_url":"https:\/\/whvn.cc\/vqr693","views":152,"favorites":1,"source":"","purity":"sfw","category":"anime","dimension_x":1920,"dimension_y":1080,"resolution":"1920x1080","ratio":"1.78","file_size":211306,"file_type":"image\/jpeg","created_at":"2024-04-06 21:27:57","colors":["#cc3333","#424153","#000000","#663300","#996633"],"path":"https:\/\/w.wallhaven.cc\/full\/vq\/wallhaven-vqr693.jpg","thumbs":{"large":"https:\/\/th.wallhaven.cc\/lg\/vq\/vqr693.jpg","original":"https:\/\/th.wallhaven.cc\/orig\/vq\/vqr693.jpg","small":"https:\/\/th.wallhaven.cc\/small\/vq\/vqr693.jpg"}},{"id":"jxop2q","url":"https:\/\/wallhaven.cc\/w\/jxop2q","short_url":"https:\/\/whvn.cc\/jxop2q","views":401,"favorites":8,"source":"","purity":"sfw","category":"anime","dimension_x":1080,"dimension_y":1920,"resolution":"1080x1920","ratio":"0.56","file_size":2376188,"file_type":"image\/jpeg","created_at":"2024-04-06 13:10:48","colors":["#424153","#000000","#999999","#663399","#66cccc"],"path":"https:\/\/w.wallhaven.cc\/full\/jx\/wallhaven-jxop2q.jpg","thumbs":{"large":"https:\/\/th.wallhaven.cc\/lg\/jx\/jxop2q.jpg","original":"https:\/\/th.wallhaven.cc\/orig\/jx\/jxop2q.jpg","small":"https:\/\/th.wallhaven.cc\/small\/jx\/jxop2q.jpg"}},{"id":"7pqvzv","url":"https:\/\/wallhaven.cc\/w\/7pqvzv","short_url":"https:\/\/whvn.cc\/7pqvzv","views":770,"favorites":16,"source":"","purity":"sfw","category":"general","dimension_x":3840,"dimension_y":2160,"resolution":"3840x2160","ratio":"1.78","file_size":1935785,"file_type":"image\/jpeg","created_at":"2024-04-06 10:47:54","colors":["#000000","#424153","#663300","#996633","#cc6633"],"path":"https:\/\/w.wallhaven.cc\/full\/7p\/wallhaven-7pqvzv.jpg","thumbs":{"large":"https:\/\/th.wallhaven.cc\/lg\/7p\/7pqvzv.jpg","original":"https:\/\/th.wallhaven.cc\/orig\/7p\/7pqvzv.jpg","small":"https:\/\/th.wallhaven.cc\/small\/7p\/7pqvzv.jpg"}},{"id":"m3m57k","url":"https:\/\/wallhaven.cc\/w\/m3m57k","short_url":"https:\/\/whvn.cc\/m3m57k","views":857,"favorites":22,"source":"","purity":"sfw","category":"general","dimension_x":3840,"dimension_y":2160,"resolution":"3840x2160","ratio":"1.78","file_size":2146863,"file_type":"image\/jpeg","created_at":"2024-04-06 10:47:54","colors":["#424153","#996633","#cc6633","#ff9900","#000000"],"path":"https:\/\/w.wallhaven.cc\/full\/m3\/wallhaven-m3m57k.jpg","thumbs":{"large":"https:\/\/th.wallhaven.cc\/lg\/m3\/m3m57k.jpg","original":"https:\/\/th.wallhaven.cc\/orig\/m3\/m3m57k.jpg","small":"https:\/\/th.wallhaven.cc\/small\/m3\/m3m57k.jpg"}}],"meta":{"current_page":1,"last_page":9203,"per_page":24,"total":220862,"query":"anime","seed":null}}