{"data":[{"id":"p9v1yj","url":"https:\/\/wallhaven.cc\/w\/p9v1yj","short_url":"https:\/\/whvn.cc\/p9v1yj","views":800,"favorites":10,"source":"https:\/\/x.com\/LYDart_Mclo\/status\/1744378185528037501?s=20;","purity":"sfw","category":"anime","dimension_x":1654,"dimension_y":2205,"resolution":"1654x2205","ratio":"0.75","file_size":1474074,"file_type":"image\/jpeg","created_at":"2024-02-29 06:34:56","colors":["#424153","#000000","#cccccc","#999999","#663399"],"path":"https:\/\/w.wallhaven.cc\/full\/p9\/wallhaven-p9v1yj.jpg","thumbs":{"large":"https:\/\/th.wallhaven.cc\/lg\/p9\/p9v1yj.jpg","original":"https:\/\/th.wallhaven.cc\/orig\/p9\/p9v1yj.jpg","small":"https:\/\/th.wallhaven.cc\/small\/p9\/p9v1yj.jpg"}},{"id":"yx3kok","url":"https:\/\/wallhaven.cc\/w\/yx3kok","short_url":"https:\/\/whvn.cc\/yx3kok","views":4196,"favorites":280,"source":"https:\/\/www.pixiv.net\/en\/artworks\/101279304","purity":"sfw","category":"anime","dimension_x":9874,"dimension_y":1858,"resolution":"9874x1858","ratio":"5.31","file_size":2020708,"file_type":"image\/jpeg","created_at":"2024-02-18 11:04:20","colors":["#e7d8b1","#999999","#fdadc7","#66cccc","#424153"],"path":"https:\/\/w.wallhaven.cc\/full\/yx\/wallhaven-yx3kok.jpg","thumbs":{"large":"https:\/\/th.wallhaven.cc\/lg\/yx\/yx3kok.jpg","original":"https:\/\/th.wallhaven.cc\/orig\/yx\/yx3kok.jpg","small":"https:\/\/th.wallhaven.cc\/small\/yx\/yx3kok.jpg"}},{"id":"l8gepq","url":"https:\/\/wallhaven.cc\/w\/l8gepq","short_url":"https:\/\/whvn.cc\/l8gepq","views":1567,"favorites":15,"source":"","purity":"sfw","category":"anime","dimension_x":2560,"dimension_y":1600,"resolution":"2560x1600","ratio":"1.6","file_size":6043148,"file_type":"image\/png","created_at":"2023-11-27 23:39:41","colors":["#ffcc33","#cc6633","#e7d8b1","#660000","#cc3333"],"path":"https:\/\/w.wallhaven.cc\/full\/l8\/wallhaven-l8gepq.png","thumbs":{"large":"https:\/\/th.wallhaven.cc\/lg\/l8\/l8gepq.jpg","original":"https:\/\/th.wallhaven.cc\/orig\/l8\/l8gepq.jpg","small":"https:\/\/th.wallhaven.cc\/small\/l8\/l8gepq.jpg"}},{"id":"8582wj","url":"https:\/\/wallhaven.cc\/w\/8582wj","short_url":"https:\/\/whvn.cc\/8582wj","views":2126,"favorites":18,"source":"https:\/\/twitter.com\/Eiichiro_Staff\/status\/1728579409098293430","purity":"sfw","category":"anime","dimension_x":2893,"dimension_y":4096,"resolution":"2893x4096","ratio":"0.71","file_size":1713742,"file_type":"image\/jpeg","created_at":"2023-11-27 18:10:12","colors":["#424153","#999999","#abbcda","#0099cc","#66cccc"],"path":"https:\/\/w.wallhaven.cc\/full\/85\/wallhaven-8582wj.jpg","thumbs":{"large":"https:\/\/th.wallhaven.cc\/lg\/85\/8582wj.jpg","original":"https:\/\/th.wallhaven.cc\/orig\/85\/8582wj.jpg","small":"https:\/\/th.wallhaven.cc\/small\/85\/8582wj.jpg"}},{"id":"qzp7v5","url":"https:\/\/wallhaven.cc\/w\/qzp7v5","short_url":"https:\/\/whvn.cc\/qzp7v5","views":1257,"favorites":5,"source":"","purity":"sfw","category":"anime","dimension_x":3840,"dimension_y":2160,"resolution":"3840x2160","ratio":"1.78","file_size":8962149,"file_type":"image\/png","created_at":"2023-11-21 19:04:33","colors":["#e7d8b1","#996633","#999999","#cccc33","#77cc33"],"path":"https:\/\/w.wallhaven.cc\/full\/qz\/wallhaven-qzp7v5.png","thumbs":{"large":"https:\/\/th.wallhaven.cc\/lg\/qz\/qzp7v5.jpg","original":"https:\/\/th.wallhaven.cc\/orig\/qz\/qzp7v5.jpg","small":"https:\/\/th.wallhaven.cc\/small\/qz\/qzp7v5.jpg"}},{"id":"l8goo2","url":"https:\/\/wallhaven.cc\/w\/l8goo2","short_url":"https:\/\/whvn.cc\/l8goo2","views":1331,"favorites":2,"source":"","purity":"sfw","category":"anime","dimension_x":3000,"dimension_y":4000,"resolution":"3000x4000","ratio":"0.75","file_size":5743010,"file_type":"image\/png","created_at":"2023-11-07 22:44:20","colors":["#000000","#660000","#424153","#ffffff","#996633"],"path":"https:\/\/w.wallhaven.cc\/full\/l8\/wallhaven-l8goo2.png","thumbs":{"large":"https:\/\/th.wallhaven.cc\/lg\/l8\/l8goo2.jpg","original":"https:\/\/th.wallhaven.cc\/orig\/l8\/l8goo2.jpg","small":"https:\/\/th.wallhaven.cc\/small\/l8\/l8goo2.jpg"}},{"id":"x6kj3v","url":"https:\/\/wallhaven.cc\/w\/x6kj3v","short_url":"https:\/\/whvn.cc\/x6kj3v","views":1293,"favorites":9,"source":"","purity":"sfw","category":"anime","dimension_x":7672,"dimension_y":3836,"resolution":"7672x3836","ratio":"2","file_size":1496954,"file_type":"image\/jpeg","created_at":"2023-10-18 03:49:12","colors":["#000000","#336600","#424153","#996633","#663300"],"path":"https:\/\/w.wallhaven.cc\/full\/x6\/wallhaven-x6kj3v.jpg","thumbs":{"large":"https:\/\/th.wallhaven.cc\/lg\/x6\/x6kj3v.jpg","original":"https:\/\/th.wallhaven.cc\/orig\/x6\/x6kj3v.jpg","small":"https:\/\/th.wallhaven.cc\/small\/x6\/x6kj3v.jpg"}},{"id":"2y2l86","url":"https:\/\/wallhaven.cc\/w\/2y2l86","short_url":"https:\/\/whvn.cc\/2y2l86","views":2526,"favorites":8,"source":"","purity":"sfw","category":"anime","dimension_x":3840,"dimension_y":2160,"resolution":"3840x2160","ratio":"1.78","file_size":1346716,"file_type":"image\/jpeg","created_at":"2023-09-21 06:38:40","colors":["#424153","#000000","#cc3333","#cc6633","#ea4c88"],"path":"https:\/\/w.wallhaven.cc\/full\/2y\/wallhaven-2y2l86.jpg","thumbs":{"large":"https:\/\/th.wallhaven.cc\/lg\/2y\/2y2l86.jpg","original":"https:\/\/th.wallhaven.cc\/orig\/2y\/2y2l86.jpg","small":"https:\/\/th.wallhaven.cc\/small\/2y\/2y2l86.jpg"}},{"id":"p9gl2j","url":"https:\/\/wallhaven.cc\/w\/p9gl2j","short_url":"https:\/\/whvn.cc\/p9gl2j","views":7577,"favorites":54,"source":"","purity":"sfw","category":"anime","dimension_x":2000,"dimension_y":1124,"resolution":"2000x1124","ratio":"1.78","file_size":4491936,"file_type":"image\/png","created_at":"2023-09-03 18:50:21","colors":["#000000","#424153","#ffffff","#999999","#336600"],"path":"https:\/\/w.wallhaven.cc\/full\/p9\/wallhaven-p9gl2j.png","thumbs":{"large":"https:\/\/th.wallhaven.cc\/lg\/p9\/p9gl2j.jpg","original":"https:\/\/th.wallhaven.cc\/orig\/p9\/p9gl2j.jpg","small":"https:\/\/th.wallhaven.cc\/small\/p9\/p9gl2j.jpg"}},{"id":"5gm3g9","url":"https:\/\/wallhaven.cc\/w\/5gm3g9","short_url":"https:\/\/whvn.cc\/5gm3g9","views":11646,"favorites":66,"source":"https:\/\/twitter.com\/LYDart_Mclo\/status\/1562460957938679808?s=20;","purity":"sfw","category":"anime","dimension_x":1460,"dimension_y":1950,"resolution":"1460x1950","ratio":"0.75","file_size":1139154,"file_type":"image\/jpeg","created_at":"2023-08-06 06:00:58","colors":["#000000","#424153","#999999","#e7d8b1","#cccccc"],"path":"https:\/\/w.wallhaven.cc\/full\/5g\/wallhaven-5gm3g9.jpg","thumbs":{"large":"https:\/\/th.wallhaven.cc\/lg\/5g\/5gm3g9.jpg","original":"https:\/\/th.wallhaven.cc\/orig\/5g\/5gm3g9.jpg","small":"https:\/\/th.wallhaven.cc\/small\/5g\/5gm3g9.jpg"}},{"id":"9d9x2d","url":"https:\/\/wallhaven.cc\/w\/9d9x2d","short_url":"https:\/\/whvn.cc\/9d9x2d","views":6859,"favorites":18,"source":"","purity":"sfw","category":"anime","dimension_x":3840,"dimension_y":2160,"resolution":"3840x2160","ratio":"1.78","file_size":632843,"file_type":"image\/jpeg","created_at":"2023-07-21 08:32:04","colors":["#424153","#000000","#cc3333","#cc6633","#996633"],"path":"https:\/\/w.wallhaven.cc\/full\/9d\/wallhaven-9d9x2d.jpg","thumbs":{"large":"https:\/\/th.wallhaven.cc\/lg\/9d\/9d9x2d.jpg","original":"https:\/\/th.wallhaven.cc\/orig\/9d\/9d9x2d.jpg","small":"https:\/\/th.wallhaven.cc\/small\/9d\/9d9x2d.jpg"}},{"id":"9drk9w","url":"https:\/\/wallhaven.cc\/w\/9drk9w","short_url":"https:\/\/whvn.cc\/9drk9w","views":12300,"favorites":75,"source":"","purity":"sfw","category":"anime","dimension_x":3800,"dimension_y":2517,"resolution":"3800x2517","ratio":"1.51","file_size":4478837,"file_type":"image\/jpeg","created_at":"2023-07-03 22:26:45","colors":["#424153","#000000","#cccccc","#999999","#996633"],"path":"https:\/\/w.wallhaven.cc\/full\/9d\/wallhaven-9drk9w.jpg","thumbs":{"large":"https:\/\/th.wallhaven.cc\/lg\/9d\/9drk9w.jpg","original":"https:\/\/th.wallhaven.cc\/orig\/9d\/9drk9w.jpg","small":"https:\/\/th.wallhaven.cc\/small\/9d\/9drk9w.jpg"}},{"id":"l822o2","url":"https:\/\/wallhaven.cc\/w\/l822o2","short_url":"https:\/\/whvn.cc\/l822o2","views":4356,"favorites":14,"source":"https:\/\/www.netflix.com\/title\/80217863","purity":"sfw","category":"general","dimension_x":2048,"dimension_y":1152,"resolution":"2048x1152","ratio":"1.78","file_size":437097,"file_type":"image\/jpeg","created_at":"2023-06-29 16:13:33","colors":["#cc6633","#e7d8b1","#996633","#663300","#424153"],"path":"https:\/\/w.wallhaven.cc\/full\/l8\/wallhaven-l822o2.jpg","thumbs":{"large":"https:\/\/th.wallhaven.cc\/lg\/l8\/l822o2.jpg","original":"https:\/\/th.wallhaven.cc\/orig\/l8\/l822o2.jpg","small":"https:\/\/th.wallhaven.cc\/small\/l8\/l822o2.jpg"}},{"id":"9d82q8","url":"https:\/\/wallhaven.cc\/w\/9d82q8","short_url":"https:\/\/whvn.cc\/9d82q8","views":19651,"favorites":130,"source":"","purity":"sfw","category":"anime","dimension_x":3840,"dimension_y":2160,"resolution":"3840x2160","ratio":"1.78","file_size":10642492,"file_type":"image\/png","created_at":"2023-05-21 07:36:15","colors":["#424153","#000000","#999999","#77cc33","#cccccc"],"path":"https:\/\/w.wallhaven.cc\/full\/9d\/wallhaven-9d82q8.png","thumbs":{"large":"https:\/\/th.wallhaven.cc\/lg\/9d\/9d82q8.jpg","original":"https:\/\/th.wallhaven.cc\/orig\/9d\/9d82q8.jpg","small":"https:\/\/th.wallhaven.cc\/small\/9d\/9d82q8.jpg"}},{"id":"2yzoly","url":"https:\/\/wallhaven.cc\/w\/2yzoly","short_url":"https:\/\/whvn.cc\/2yzoly","views":15266,"favorites":159,"source":"","purity":"sfw","category":"anime","dimension_x":2560,"dimension_y":1440,"resolution":"2560x1440","ratio":"1.78","file_size":1089047,"file_type":"image\/png","created_at":"2023-03-16 15:32:47","colors":["#cccccc","#424153","#999999","#000000","#996633"],"path":"https:\/\/w.wallhaven.cc\/full\/2y\/wallhaven-2yzoly.png","thumbs":{"large":"https:\/\/th.wallhaven.cc\/lg\/2y\/2yzoly.jpg","original":"https:\/\/th.wallhaven.cc\/orig\/2y\/2yzoly.jpg","small":"https:\/\/th.wallhaven.cc\/small\/2y\/2yzoly.jpg"}},{"id":"we5elp","url":"https:\/\/wallhaven.cc\/w\/we5elp","short_url":"https:\/\/whvn.cc\/we5elp","views":1813,"favorites":2,"source":"","purity":"sfw","category":"anime","dimension_x":1920,"dimension_y":1080,"resolution":"1920x1080","ratio":"1.78","file_size":302268,"file_type":"image\/jpeg","created_at":"2023-02-04 18:30:42","colors":["#424153","#000000","#cccccc","#e7d8b1","#996633"],"path":"https:\/\/w.wallhaven.cc\/full\/we\/wallhaven-we5elp.jpg","thumbs":{"large":"https:\/\/th.wallhaven.cc\/lg\/we\/we5elp.jpg","original":"https:\/\/th.wallhaven.cc\/orig\/we\/we5elp.jpg","small":"https:\/\/th.wallhaven.cc\/small\/we\/we5elp.jpg"}},{"id":"85g5d1","url":"https:\/\/wallhaven.cc\/w\/85g5d1","short_url":"https:\/\/whvn.cc\/85g5d1","views":4160,"favorites":27,"source":"","purity":"sfw","category":"anime","dimension_x":1920,"dimension_y":1080,"resolution":"1920x1080","ratio":"1.78","file_size":149851,"file_type":"image\/jpeg","created_at":"2023-02-04 18:30:42","colors":["#424153","#999999","#000000","#336600","#abbcda"],"path":"https:\/\/w.wallhaven.cc\/full\/85\/wallhaven-85g5d1.jpg","thumbs":{"large":"https:\/\/th.wallhaven.cc\/lg\/85\/85g5d1.jpg","original":"https:\/\/th.wallhaven.cc\/orig\/85\/85g5d1.jpg","small":"https:\/\/th.wallhaven.cc\/small\/85\/85g5d1.jpg"}},{"id":"qzrzgq","url":"https:\/\/wallhaven.cc\/w\/qzrzgq","short_url":"https:\/\/whvn.cc\/qzrzgq","views":1331,"favorites":0,"source":"","purity":"sfw","category":"anime","dimension_x":1920,"dimension_y":1080,"resolution":"1920x1080","ratio":"1.78","file_size":187349,"file_type":"image\/jpeg","created_at":"2023-02-04 18:30:42","colors":["#000000","#ffcc33","#77cc33","#cc6633","#660000"],"path":"https:\/\/w.wallhaven.cc\/full\/qz\/wallhaven-qzrzgq.jpg","thumbs":{"large":"https:\/\/th.wallhaven.cc\/lg\/qz\/qzrzgq.jpg","original":"https:\/\/th.wallhaven.cc\/orig\/qz\/qzrzgq.jpg","small":"https:\/\/th.wallhaven.cc\/small\/qz\/qzrzgq.jpg"}},{"id":"ex8xer","url":"https:\/\/wallhaven.cc\/w\/ex8xer","short_url":"https:\/\/whvn.cc\/ex8xer","views":1137,"favorites":3,"source":"","purity":"sfw","category":"anime","dimension_x":1920,"dimension_y":1080,"resolution":"1920x1080","ratio":"1.78","file_size":252073,"file_type":"image\/jpeg","created_at":"2023-02-04 18:30:42","colors":["#ffffff","#000000","#999999","#424153","#e7d8b1"],"path":"https:\/\/w.wallhaven.cc\/full\/ex\/wallhaven-ex8xer.jpg","thumbs":{"large":"https:\/\/th.wallhaven.cc\/lg\/ex\/ex8xer.jpg","original":"https:\/\/th.wallhaven.cc\/orig\/ex\/ex8xer.jpg","small":"https:\/\/th.wallhaven.cc\/small\/ex\/ex8xer.jpg"}},{"id":"d686el","url":"https:\/\/wallhaven.cc\/w\/d686el","short_url":"https:\/\/whvn.cc\/d686el","views":890,"favorites":2,"source":"","purity":"sfw","category":"anime","dimension_x":1920,"dimension_y":1080,"resolution":"1920x1080","ratio":"1.78","file_size":249077,"file_type":"image\/jpeg","created_at":"2023-02-04 18:30:42","colors":["#000000","#424153","#996633","#999999","#663300"],"path":"https:\/\/w.wallhaven.cc\/full\/d6\/wallhaven-d686el.jpg","thumbs":{"large":"https:\/\/th.wallhaven.cc\/lg\/d6\/d686el.jpg","original":"https:\/\/th.wallhaven.cc\/orig\/d6\/d686el.jpg","small":"https:\/\/th.wallhaven.cc\/small\/d6\/d686el.jpg"}},{"id":"1pqpxv","url":"https:\/\/wallhaven.cc\/w\/1pqpxv","short_url":"https:\/\/whvn.cc\/1pqpxv","views":1138,"favorites":3,"source":"","purity":"sfw","category":"anime","dimension_x":1920,"dimension_y":1080,"resolution":"1920x1080","ratio":"1.78","file_size":266373,"file_type":"image\/jpeg","created_at":"2023-02-04 18:30:42","colors":["#cccc33","#424153","#336600","#996633","#77cc33"],"path":"https:\/\/w.wallhaven.cc\/full\/1p\/wallhaven-1pqpxv.jpg","thumbs":{"large":"https:\/\/th.wallhaven.cc\/lg\/1p\/1pqpxv.jpg","original":"https:\/\/th.wallhaven.cc\/orig\/1p\/1pqpxv.jpg","small":"https:\/\/th.wallhaven.cc\/small\/1p\/1pqpxv.jpg"}},{"id":"kx8xkq","url":"https:\/\/wallhaven.cc\/w\/kx8xkq","short_url":"https:\/\/whvn.cc\/kx8xkq","views":704,"favorites":5,"source":"","purity":"sfw","category":"anime","dimension_x":1920,"dimension_y":1080,"resolution":"1920x1080","ratio":"1.78","file_size":236993,"file_type":"image\/jpeg","created_at":"2023-02-04 18:30:42","colors":["#000000","#424153","#66cccc","#333399","#0099cc"],"path":"https:\/\/w.wallhaven.cc\/full\/kx\/wallhaven-kx8xkq.jpg","thumbs":{"large":"https:\/\/th.wallhaven.cc\/lg\/kx\/kx8xkq.jpg","original":"https:\/\/th.wallhaven.cc\/orig\/kx\/kx8xkq.jpg","small":"https:\/\/th.wallhaven.cc\/small\/kx\/kx8xkq.jpg"}},{"id":"zypyoj","url":"https:\/\/wallhaven.cc\/w\/zypyoj","short_url":"https:\/\/whvn.cc\/zypyoj","views":1069,"favorites":4,"source":"","purity":"sfw","category":"anime","dimension_x":1920,"dimension_y":1080,"resolution":"1920x1080","ratio":"1.78","file_size":156026,"file_type":"image\/jpeg","created_at":"2023-02-04 18:30:42","colors":["#999999","#ffffff","#e7d8b1","#424153","#333399"],"path":"https:\/\/w.wallhaven.cc\/full\/zy\/wallhaven-zypyoj.jpg","thumbs":{"large":"https:\/\/th.wallhaven.cc\/lg\/zy\/zypyoj.jpg","original":"https:\/\/th.wallhaven.cc\/orig\/zy\/zypyoj.jpg","small":"https:\/\/th.wallhaven.cc\/small\/zy\/zypyoj.jpg"}},{"id":"x6e6j3","url":"https:\/\/wallhaven.cc\/w\/x6e6j3","short_url":"https:\/\/whvn.cc\/x6e6j3","views":1161,"favorites":5,"source":"","purity":"sfw","category":"anime","dimension_x":1920,"dimension_y":1080,"resolution":"1920x1080","ratio":"1.78","file_size":176968,"file_type":"image\/jpeg","created_at":"2023-02-04 18:30:42","colors":["#000000","#424153","#999999","#ffffff","#cccccc"],"path":"https:\/\/w.wallhaven.cc\/full\/x6\/wallhaven-x6e6j3.jpg","thumbs":{"large":"https:\/\/th.wallhaven.cc\/lg\/x6\/x6e6j3.jpg","original":"https:\/\/th.wallhaven.cc\/orig\/x6\/x6e6j3.jpg","small":"https:\/\/th.wallhaven.cc\/small\/x6\/x6e6j3.jpg"}}],"meta":{"current_page":1,"last_page":12,"per_page":24,"total":269,"query":"zoro","seed":null}}